^C:\USERS\ALEXE\SOURCE\REPOS\CPPGAMEOFLIFE\CPPGAMEOFLIFE\X64\DEBUG\.NETFRAMEWORK,VERSION=V4.7.2.ASSEMBLYATTRIBUTES.OBJ|C:\USERS\ALEXE\SOURCE\REPOS\CPPGAMEOFLIFE\CPPGAMEOFLIFE\X64\DEBUG\APP.RES|C:\USERS\ALEXE\SOURCE\REPOS\CPPGAMEOFLIFE\CPPGAMEOFLIFE\X64\DEBUG\ASSEMBLYINFO.OBJ|C:\USERS\ALEXE\SOURCE\REPOS\CPPGAMEOFLIFE\CPPGAMEOFLIFE\X64\DEBUG\CPPCLR_WINFORMSPROJECT.OBJ|C:\USERS\ALEXE\SOURCE\REPOS\CPPGAMEOFLIFE\CPPGAMEOFLIFE\X64\DEBUG\FORM1.OBJ|C:\USERS\ALEXE\SOURCE\REPOS\CPPGAMEOFLIFE\CPPGAMEOFLIFE\X64\DEBUG\PCH.OBJ
/OUT:"C:\USERS\ALEXE\SOURCE\REPOS\CPPGAMEOFLIFE\X64\DEBUG\CPPGAMEOFLIFE.EXE" /INCREMENTAL /ILK:"X64\DEBUG\CPPGAMEOFLIFE.ILK" /NOLOGO /ASSEMBLYRESOURCE:X64\DEBUG\CPPGAMEOFLIFE.FORM1.RESOURCES /MANIFEST /MANIFESTUAC:"level='asInvoker' uiAccess='false'" /manifest:embed /DEBUG:FULL /PDB:"C:\USERS\ALEXE\SOURCE\REPOS\CPPGAMEOFLIFE\X64\DEBUG\CPPGAMEOFLIFE.PDB" /ASSEMBLYDEBUG /SUBSYSTEM:WINDOWS /TLBID:1 /ENTRY:"main" /DYNAMICBASE /FIXED:NO /NXCOMPAT /MACHINE:X64 X64\DEBUG\APP.RES
X64\DEBUG\ASSEMBLYINFO.OBJ
X64\DEBUG\CPPCLR_WINFORMSPROJECT.OBJ
X64\DEBUG\FORM1.OBJ
X64\DEBUG\PCH.OBJ
"X64\DEBUG\.NETFRAMEWORK,VERSION=V4.7.2.ASSEMBLYATTRIBUTES.OBJ"
