^C:\USERS\ALEXE\SOURCE\REPOS\CPPGAMEOFLIFE\CPPGAMEOFLIFE\FORM1.RESX
C:\Users\alexe\source\repos\CPPGameOfLife\CPPGameOfLife\CPPGameOfLife.vcxproj
^C:\USERS\ALEXE\SOURCE\REPOS\CPPGAMEOFLIFE\CPPGAMEOFLIFE\FORM1.RESX
C:\Users\alexe\source\repos\CPPGameOfLife\CPPGameOfLife\CPPGameOfLife.vcxproj
