^C:\USERS\ALEXE\SOURCE\REPOS\CPPGAMEOFLIFE\CPPGAMEOFLIFE\FORM1.RESX
C:\USERS\ALEXE\SOURCE\REPOS\CPPGAMEOFLIFE\CPPGAMEOFLIFE\CPPGAMEOFLIFE.VCXPROJ
^C:\USERS\ALEXE\SOURCE\REPOS\CPPGAMEOFLIFE\CPPGAMEOFLIFE\FORM1.RESX
C:\USERS\ALEXE\SOURCE\REPOS\CPPGAMEOFLIFE\CPPGAMEOFLIFE\CPPGAMEOFLIFE.VCXPROJ
